{
    "debug": true,
    "lintScripts": false,
    "preprocessorLocations": "public",
    "preprocessorScriptOutput": "public/scripts",
    "preprocessorStyleOutput": "public/styles",
    "projectName": "Dreadworks Framework",
    "projectDescription": "Dreadworks is a hybrid framework focusing on practicality over strict methodologies and semantic practices.",
    "publishedId": "5057",
    "serverHostname": null,
    "serverPort": null,
    "templateDirectory": "templates",
    "templateDefaultLayout": "layout",
    "templateDefaultPage": "index",
    "type": "mixture",
    "useCompass": false,
    "simpleModePartnerServer": null,
    "simpleModeFileTypes": null,
    "modelSource": null,
    "domain": null,
    "convertHtmlOutput": "output",
    "followLeader": false,
    "routes": null,
    "customRubyPath": null,
    "remoteDebugPort": 0,
    "useNodeSass": false,
    "optimiseImages": true,
    "password": null
}